model,label,treshold,tpr,fpr
GraphConv,gluon,0.3,0.3000188153190907,0.04429220003707903
GraphConv,gluon,0.5,0.5000085524177685,0.10162673484610045
GraphConv,gluon,0.8,0.8000102629013222,0.2963089114716496
GraphConv,quark,0.3,0.3000495540138751,0.020573246229093272
GraphConv,quark,0.5,0.5000530935862948,0.05534511064746725
GraphConv,quark,0.8,0.8000141582896786,0.22429626842699318
GraphConv,W,0.3,0.30003257496528196,0.0299043835344913
GraphConv,W,0.5,0.5000085723592848,0.0672762449746416
GraphConv,W,0.8,0.8000068578874278,0.20854213975774863
GraphConv,Z,0.3,0.30004971116101276,0.021791496274718502
GraphConv,Z,0.5,0.5000085708898298,0.06727052567621723
GraphConv,Z,0.8,0.8000068567118638,0.26192025441367217
GraphConv,top,0.3,0.3001752624683081,0.006113171380342009
GraphConv,top,0.5,0.5000255236604332,0.019142515466409937
GraphConv,top,0.8,0.8000136126188977,0.11179850710828862
