model,label,Accuracy_mean,Accuracy_std
QInteractionNetwork, gluon,, 0.8119170454545455, 0.0035024085942025503
QInteractionNetwork, quark,, 0.8558602272727273, 0.0019700563847491665
QInteractionNetwork, W,, 0.8536545454545454, 0.005384707263542713
QInteractionNetwork, Z,, 0.863484090909091, 0.005636183098281591
QInteractionNetwork, top,, 0.8988772727272727, 0.002005994374307184
