model,label,Accuracy_mean,Accuracy_std
QInteractionNetwork, gluon,, 0.8116011363636364, 0.0027452036026946887
QInteractionNetwork, quark,, 0.8567568181818181, 0.0017013849487407745
QInteractionNetwork, W,, 0.8500193181818181, 0.004399098476622775
QInteractionNetwork, Z,, 0.8608863636363635, 0.006962284018935912
QInteractionNetwork, top,, 0.8998704545454546, 0.00294735663892661
