model,label,Accuracy_mean,Accuracy_std
QInteractionNetwork, gluon,, 0.8110079545454546, 0.0026467763118634257
QInteractionNetwork, quark,, 0.8549761363636363, 0.0021081456664154936
QInteractionNetwork, W,, 0.8460352272727272, 0.007326776168178936
QInteractionNetwork, Z,, 0.8525647727272728, 0.010202456065202974
QInteractionNetwork, top,, 0.896359090909091, 0.004586758925212519
