model,label,Accuracy_mean,Accuracy_std
QInteractionNetwork, gluon,, 0.7985340909090909, 0.010687818672451666
QInteractionNetwork, quark,, 0.8415625, 0.007090969642078303
QInteractionNetwork, W,, 0.8077761363636362, 0.01430065851406677
QInteractionNetwork, Z,, 0.8187693181818181, 0.012802230615378664
QInteractionNetwork, top,, 0.8933556818181817, 0.0021713887209048365
