model,label,tpr,fpr_mean,fpr_std 
QGraphConv, gluon, 0.3, 0.05254333012809696, 0.001692988368584453
QGraphConv, gluon, 0.5, 0.12150825037031295, 0.00436032218844706
QGraphConv, gluon, 0.8, 0.369781513143184, 0.015180087230359667
QGraphConv, quark, 0.3, 0.02559980480227065, 0.0020075462213354706
QGraphConv, quark, 0.5, 0.06612982187995516, 0.00508519951187597
QGraphConv, quark, 0.8, 0.24529726275048835, 0.01010419947470837
QGraphConv, W, 0.3, 0.03948614495174979, 0.002512878084349954
QGraphConv, W, 0.5, 0.08925245040504996, 0.004751581508400301
QGraphConv, W, 0.8, 0.25530815748156876, 0.006151290984900146
QGraphConv, Z, 0.3, 0.0359826109487799, 0.006643474351677475
QGraphConv, Z, 0.5, 0.09361094894698219, 0.010479187563664536
QGraphConv, Z, 0.8, 0.30025778114266477, 0.015752444743294517
QGraphConv, top, 0.3, 0.015591929176980102, 0.0013221821311415049
QGraphConv, top, 0.5, 0.027937302778279143, 0.0016610372678246689
QGraphConv, top, 0.8, 0.1297493718112015, 0.004945630735341708
