model,label,tpr,fpr_mean,fpr_std 
QInteractionNetwork, gluon, 0.3, 0.04273634345440355, 0.0010223054762084763
QInteractionNetwork, gluon, 0.5, 0.0988059871123043, 0.0018939907588277928
QInteractionNetwork, gluon, 0.8, 0.28682308709502413, 0.006571986750345171
QInteractionNetwork, quark, 0.3, 0.019494290836384136, 0.0004516239849310837
QInteractionNetwork, quark, 0.5, 0.053482197097255255, 0.001296358901272491
QInteractionNetwork, quark, 0.8, 0.21113282066626207, 0.004531196670701228
QInteractionNetwork, W, 0.3, 0.019891528492272322, 0.002450291520739034
QInteractionNetwork, W, 0.5, 0.046286487200274326, 0.005165555030899618
QInteractionNetwork, W, 0.8, 0.15808404529097764, 0.008054064925961914
QInteractionNetwork, Z, 0.3, 0.009800238435924546, 0.001778990748661594
QInteractionNetwork, Z, 0.5, 0.03560156255929676, 0.005122806240764157
QInteractionNetwork, Z, 0.8, 0.21373744666869632, 0.010821974465653751
QInteractionNetwork, top, 0.3, 0.0063536066723151735, 0.0010974150883151384
QInteractionNetwork, top, 0.5, 0.018783746952000725, 0.0010032347174228286
QInteractionNetwork, top, 0.8, 0.10189120674024857, 0.0018526605275522906
