model,label,tpr,fpr_mean,fpr_std 
QGraphConv, gluon, 0.3, 0.041325886842188936, 0.0017397948200757675
QGraphConv, gluon, 0.5, 0.09605033186356839, 0.00207896329969772
QGraphConv, gluon, 0.8, 0.2849098431572076, 0.0045774169717935735
QGraphConv, quark, 0.3, 0.01905618653322329, 0.0006034370008175389
QGraphConv, quark, 0.5, 0.05222390643650025, 0.0017080185403438764
QGraphConv, quark, 0.8, 0.21015002734780364, 0.005393357078044975
QGraphConv, W, 0.3, 0.01895219232105539, 0.0009898170846238626
QGraphConv, W, 0.5, 0.0450273033922691, 0.0016810715194075726
QGraphConv, W, 0.8, 0.15894615508346652, 0.004750811722299042
QGraphConv, Z, 0.3, 0.010141091977376681, 0.0008522573468634218
QGraphConv, Z, 0.5, 0.03588225272163771, 0.0019969593053927722
QGraphConv, Z, 0.8, 0.21126287302058536, 0.005454462492744581
QGraphConv, top, 0.3, 0.009449876142405014, 0.0012507332019573564
QGraphConv, top, 0.5, 0.021509690144456233, 0.0012834952499348724
QGraphConv, top, 0.8, 0.10220391973044962, 0.00463391326141961
