model,label,tpr,fpr_mean,fpr_std 
QInteractionNetwork, gluon, 0.3, 0.042300463298057187, 0.001724721163097069
QInteractionNetwork, gluon, 0.5, 0.09789130919188682, 0.0037137842767998377
QInteractionNetwork, gluon, 0.8, 0.2827314295640721, 0.013157744893877646
QInteractionNetwork, quark, 0.3, 0.019860121597016202, 0.00048767444814041714
QInteractionNetwork, quark, 0.5, 0.053752277288931095, 0.001483077118918795
QInteractionNetwork, quark, 0.8, 0.2092894618566961, 0.004615037211627066
QInteractionNetwork, W, 0.3, 0.019168720241043463, 0.001657700158833646
QInteractionNetwork, W, 0.5, 0.045489927376963044, 0.0036055578550457323
QInteractionNetwork, W, 0.8, 0.1588120127077272, 0.012462600683266383
QInteractionNetwork, Z, 0.3, 0.009934293596630048, 0.0016717800248937402
QInteractionNetwork, Z, 0.5, 0.035236376087347476, 0.003912816031628425
QInteractionNetwork, Z, 0.8, 0.21092597025094065, 0.008858275862130997
QInteractionNetwork, top, 0.3, 0.00551733952421472, 0.0013018289876731792
QInteractionNetwork, top, 0.5, 0.018098829442505033, 0.002270365969031681
QInteractionNetwork, top, 0.8, 0.10051341737472652, 0.005459568698170888
