model,label,tpr,fpr_mean,fpr_std 
QGarnet, gluon, 0.3, 0.04232980593352024, 0.0005566695912929515
QGarnet, gluon, 0.5, 0.09755488999752934, 0.0015401085586192536
QGarnet, gluon, 0.8, 0.28911396866096484, 0.003421093808358771
QGarnet, quark, 0.3, 0.019938566174484813, 0.0006052459550612716
QGarnet, quark, 0.5, 0.05239339992394042, 0.0011772074880649747
QGarnet, quark, 0.8, 0.2079979274042735, 0.0030152231481665615
QGarnet, W, 0.3, 0.018394218693614964, 0.0007236473398625612
QGarnet, W, 0.5, 0.043003721766394824, 0.0008575983495496103
QGarnet, W, 0.8, 0.15136183892421035, 0.0035987797253974577
QGarnet, Z, 0.3, 0.008685463933637037, 0.0005641824623647837
QGarnet, Z, 0.5, 0.03192425280020415, 0.0012339314622073542
QGarnet, Z, 0.8, 0.2054426799616905, 0.004950598168267804
QGarnet, top, 0.3, 0.008714496066923113, 0.0003596562940712637
QGarnet, top, 0.5, 0.020550116677086963, 0.000689664034652566
QGarnet, top, 0.8, 0.10223663360941566, 0.0023993876923534404
