model,label,tpr,fpr_mean,fpr_std 
QGarnet, gluon, 0.3, 0.042900902614542026, 0.0008728296047722416
QGarnet, gluon, 0.5, 0.09894750018323194, 0.002488755669050697
QGarnet, gluon, 0.8, 0.2920612618281593, 0.007671291693045204
QGarnet, quark, 0.3, 0.019755702498308464, 0.0005345018967826201
QGarnet, quark, 0.5, 0.05309783049531254, 0.001411283172149044
QGarnet, quark, 0.8, 0.20807463399750445, 0.0029685971215770144
QGarnet, W, 0.3, 0.018711858927229555, 0.0004833382499608592
QGarnet, W, 0.5, 0.0437353665449865, 0.0006779686683344737
QGarnet, W, 0.8, 0.1530613215174171, 0.0033251350107288994
QGarnet, Z, 0.3, 0.0093620568361959, 0.0005029979326457878
QGarnet, Z, 0.5, 0.03332862599421966, 0.0011532496573666933
QGarnet, Z, 0.8, 0.20744179425786843, 0.0036282492816492266
QGarnet, top, 0.3, 0.009663312411474686, 0.0011384309244419433
QGarnet, top, 0.5, 0.021555412115030835, 0.0014905270065539312
QGarnet, top, 0.8, 0.10277401544833101, 0.0024888579550885327
