model,label,AUC_mean,AUC_std
QGarnet, gluon, 0.529621378078223, 0.021587779562231263
QGarnet, quark, 0.599645557505918, 0.016949961647339404
QGarnet, W, 0.6211612385266163, 0.010812982619756396
QGarnet, Z, 0.5995531875399607, 0.028768223201344624
QGarnet, top, 0.8369328409368272, 0.018936290096449895
