model,label,AUC_mean,AUC_std
QGraphConv, gluon, 0.8345875641549803, 0.0036728598760288724
QGraphConv, quark, 0.874644269936997, 0.0017823452153613896
QGraphConv, W, 0.9003657240359078, 0.0023968943918958262
QGraphConv, Z, 0.8839119383721709, 0.002473481218532631
QGraphConv, top, 0.9184589963003965, 0.0010155465287600273
